^C:\USERS\JENNIFER\DOCUMENTS\LAB7\LAB7\DEBUG\LOADSHADERS.OBJ|C:\USERS\JENNIFER\DOCUMENTS\LAB7\LAB7\DEBUG\MAIN.OBJ|C:\USERS\JENNIFER\DOCUMENTS\LAB7\LAB7\DEBUG\QUAD.OBJ|C:\USERS\JENNIFER\DOCUMENTS\LAB7\LAB7\DEBUG\TEXMODEL.OBJ|C:\USERS\JENNIFER\DOCUMENTS\LAB7\LAB7\DEBUG\TEXTURE.OBJ|C:\USERS\JENNIFER\DOCUMENTS\LAB7\LAB7\DEBUG\VIEWCONTROLLER.OBJ
C:\PROGRAM FILES (X86)\WINDOWS KITS\8.1\LIB\WINV6.3\UM\X86\KERNEL32.LIB
C:\PROGRAM FILES (X86)\WINDOWS KITS\8.1\LIB\WINV6.3\UM\X86\USER32.LIB
C:\PROGRAM FILES (X86)\WINDOWS KITS\8.1\LIB\WINV6.3\UM\X86\GDI32.LIB
C:\PROGRAM FILES (X86)\WINDOWS KITS\8.1\LIB\WINV6.3\UM\X86\WINSPOOL.LIB
C:\PROGRAM FILES (X86)\WINDOWS KITS\8.1\LIB\WINV6.3\UM\X86\COMDLG32.LIB
C:\PROGRAM FILES (X86)\WINDOWS KITS\8.1\LIB\WINV6.3\UM\X86\ADVAPI32.LIB
C:\PROGRAM FILES (X86)\WINDOWS KITS\8.1\LIB\WINV6.3\UM\X86\SHELL32.LIB
C:\PROGRAM FILES (X86)\WINDOWS KITS\8.1\LIB\WINV6.3\UM\X86\OLE32.LIB
C:\PROGRAM FILES (X86)\WINDOWS KITS\8.1\LIB\WINV6.3\UM\X86\OLEAUT32.LIB
C:\PROGRAM FILES (X86)\WINDOWS KITS\8.1\LIB\WINV6.3\UM\X86\UUID.LIB
C:\PROGRAM FILES (X86)\WINDOWS KITS\8.1\LIB\WINV6.3\UM\X86\ODBC32.LIB
C:\PROGRAM FILES (X86)\WINDOWS KITS\8.1\LIB\WINV6.3\UM\X86\ODBCCP32.LIB
C:\PROGRAM FILES (X86)\WINDOWS KITS\8.1\LIB\WINV6.3\UM\X86\OPENGL32.LIB
C:\PROGRAM FILES (X86)\WINDOWS KITS\8.1\LIB\WINV6.3\UM\X86\GLU32.LIB
C:\SDL\SDL2-2.0.3\LIB\X86\SDL2MAIN.LIB
C:\SDL\SDL2-2.0.3\LIB\X86\SDL2.LIB
C:\GLEW\GLEW-1.11.0\LIB\RELEASE\WIN32\GLEW32S.LIB
C:\USERS\JENNIFER\DOCUMENTS\LAB7\LAB7\DEBUG\LOADSHADERS.OBJ
C:\USERS\JENNIFER\DOCUMENTS\LAB7\LAB7\DEBUG\MAIN.OBJ
C:\USERS\JENNIFER\DOCUMENTS\LAB7\LAB7\DEBUG\QUAD.OBJ
C:\USERS\JENNIFER\DOCUMENTS\LAB7\LAB7\DEBUG\TEXMODEL.OBJ
C:\USERS\JENNIFER\DOCUMENTS\LAB7\LAB7\DEBUG\TEXTURE.OBJ
C:\USERS\JENNIFER\DOCUMENTS\LAB7\LAB7\DEBUG\VIEWCONTROLLER.OBJ
C:\WINDOWS\SYSTEM32\TZRES.DLL
C:\WINDOWS\GLOBALIZATION\SORTING\SORTDEFAULT.NLS
C:\PROGRAM FILES (X86)\MICROSOFT VISUAL STUDIO 12.0\VC\LIB\MSVCPRTD.LIB
C:\PROGRAM FILES (X86)\MICROSOFT VISUAL STUDIO 12.0\VC\LIB\MSVCRTD.LIB
C:\PROGRAM FILES (X86)\MICROSOFT VISUAL STUDIO 12.0\VC\LIB\OLDNAMES.LIB
C:\PROGRAM FILES (X86)\MICROSOFT VISUAL STUDIO 12.0\VC\LIB\LIBCMT.LIB
C:\PROGRAM FILES (X86)\MICROSOFT VISUAL STUDIO 12.0\VC\LIB\MSVCRT.LIB
